^C:\USERS\STUDENT\DOCUMENTS\GRAFIKA\AU\GKCOPYPASTEDFROMJANUSZGANCZARSKI\GKCOPYPASTEDFROMJANUSZGANCZARSKI\DEBUG\GKCOPYPASTEDFROMJANUSZGANCZARSKI.OBJ|C:\USERS\STUDENT\DOCUMENTS\GRAFIKA\AU\GKCOPYPASTEDFROMJANUSZGANCZARSKI\GKCOPYPASTEDFROMJANUSZGANCZARSKI\DEBUG\STDAFX.OBJ|C:\USERS\STUDENT\DOCUMENTS\GRAFIKA\AU\GKCOPYPASTEDFROMJANUSZGANCZARSKI\GKCOPYPASTEDFROMJANUSZGANCZARSKI\DEBUG\TARGA.OBJ
C:\WINDOWS\GLOBALIZATION\SORTING\SORTDEFAULT.NLS
C:\USERS\STUDENT\DOCUMENTS\GRAFIKA\AU\GKCOPYPASTEDFROMJANUSZGANCZARSKI\PACKAGES\NUPENGL.CORE.0.1.0.1\BUILD\NATIVE\LIB\WIN32\GLEW32.LIB
C:\USERS\STUDENT\DOCUMENTS\GRAFIKA\AU\GKCOPYPASTEDFROMJANUSZGANCZARSKI\PACKAGES\NUPENGL.CORE.0.1.0.1\BUILD\NATIVE\LIB\WIN32\GLFW3DLL.LIB
C:\USERS\STUDENT\DOCUMENTS\GRAFIKA\AU\GKCOPYPASTEDFROMJANUSZGANCZARSKI\PACKAGES\NUPENGL.CORE.0.1.0.1\BUILD\NATIVE\LIB\WIN32\FREEGLUT.LIB
C:\PROGRAM FILES (X86)\WINDOWS KITS\8.1\LIB\WINV6.3\UM\X86\KERNEL32.LIB
C:\PROGRAM FILES (X86)\WINDOWS KITS\8.1\LIB\WINV6.3\UM\X86\USER32.LIB
C:\PROGRAM FILES (X86)\WINDOWS KITS\8.1\LIB\WINV6.3\UM\X86\GDI32.LIB
C:\PROGRAM FILES (X86)\WINDOWS KITS\8.1\LIB\WINV6.3\UM\X86\WINSPOOL.LIB
C:\PROGRAM FILES (X86)\WINDOWS KITS\8.1\LIB\WINV6.3\UM\X86\COMDLG32.LIB
C:\PROGRAM FILES (X86)\WINDOWS KITS\8.1\LIB\WINV6.3\UM\X86\ADVAPI32.LIB
C:\PROGRAM FILES (X86)\WINDOWS KITS\8.1\LIB\WINV6.3\UM\X86\SHELL32.LIB
C:\PROGRAM FILES (X86)\WINDOWS KITS\8.1\LIB\WINV6.3\UM\X86\OLE32.LIB
C:\PROGRAM FILES (X86)\WINDOWS KITS\8.1\LIB\WINV6.3\UM\X86\OLEAUT32.LIB
C:\PROGRAM FILES (X86)\WINDOWS KITS\8.1\LIB\WINV6.3\UM\X86\UUID.LIB
C:\PROGRAM FILES (X86)\WINDOWS KITS\8.1\LIB\WINV6.3\UM\X86\ODBC32.LIB
C:\PROGRAM FILES (X86)\WINDOWS KITS\8.1\LIB\WINV6.3\UM\X86\ODBCCP32.LIB
C:\USERS\STUDENT\DOCUMENTS\GRAFIKA\AU\GKCOPYPASTEDFROMJANUSZGANCZARSKI\GKCOPYPASTEDFROMJANUSZGANCZARSKI\DEBUG\GKCOPYPASTEDFROMJANUSZGANCZARSKI.OBJ
C:\USERS\STUDENT\DOCUMENTS\GRAFIKA\AU\GKCOPYPASTEDFROMJANUSZGANCZARSKI\GKCOPYPASTEDFROMJANUSZGANCZARSKI\DEBUG\STDAFX.OBJ
C:\USERS\STUDENT\DOCUMENTS\GRAFIKA\AU\GKCOPYPASTEDFROMJANUSZGANCZARSKI\GKCOPYPASTEDFROMJANUSZGANCZARSKI\DEBUG\TARGA.OBJ
C:\WINDOWS\SYSTEM32\TZRES.DLL
C:\PROGRAM FILES (X86)\WINDOWS KITS\8.1\LIB\WINV6.3\UM\X86\GLU32.LIB
C:\PROGRAM FILES (X86)\WINDOWS KITS\8.1\LIB\WINV6.3\UM\X86\OPENGL32.LIB
C:\PROGRAM FILES (X86)\WINDOWS KITS\8.1\LIB\WINV6.3\UM\X86\WINMM.LIB
C:\PROGRAM FILES (X86)\MICROSOFT VISUAL STUDIO 14.0\VC\LIB\MSVCRTD.LIB
C:\PROGRAM FILES (X86)\MICROSOFT VISUAL STUDIO 14.0\VC\LIB\OLDNAMES.LIB
C:\PROGRAM FILES (X86)\MICROSOFT VISUAL STUDIO 14.0\VC\LIB\VCRUNTIMED.LIB
C:\PROGRAM FILES (X86)\WINDOWS KITS\10\LIB\10.0.10240.0\UCRT\X86\UCRTD.LIB
^F:\GRAFIKA KOMPUTEROWA\ZAJECIA 4 CW1\GKCOPYPASTEDFROMJANUSZGANCZARSKI\DEBUG\GKCOPYPASTEDFROMJANUSZGANCZARSKI.OBJ|F:\GRAFIKA KOMPUTEROWA\ZAJECIA 4 CW1\GKCOPYPASTEDFROMJANUSZGANCZARSKI\DEBUG\STDAFX.OBJ|F:\GRAFIKA KOMPUTEROWA\ZAJECIA 4 CW1\GKCOPYPASTEDFROMJANUSZGANCZARSKI\DEBUG\TARGA.OBJ
C:\WINDOWS\GLOBALIZATION\SORTING\SORTDEFAULT.NLS
F:\GRAFIKA KOMPUTEROWA\ZAJECIA 4 CW1\PACKAGES\NUPENGL.CORE.0.1.0.1\BUILD\NATIVE\LIB\WIN32\GLEW32.LIB
F:\GRAFIKA KOMPUTEROWA\ZAJECIA 4 CW1\PACKAGES\NUPENGL.CORE.0.1.0.1\BUILD\NATIVE\LIB\WIN32\GLFW3DLL.LIB
F:\GRAFIKA KOMPUTEROWA\ZAJECIA 4 CW1\PACKAGES\NUPENGL.CORE.0.1.0.1\BUILD\NATIVE\LIB\WIN32\FREEGLUT.LIB
C:\PROGRAM FILES (X86)\WINDOWS KITS\8.1\LIB\WINV6.3\UM\X86\KERNEL32.LIB
C:\PROGRAM FILES (X86)\WINDOWS KITS\8.1\LIB\WINV6.3\UM\X86\USER32.LIB
C:\PROGRAM FILES (X86)\WINDOWS KITS\8.1\LIB\WINV6.3\UM\X86\GDI32.LIB
C:\PROGRAM FILES (X86)\WINDOWS KITS\8.1\LIB\WINV6.3\UM\X86\WINSPOOL.LIB
C:\PROGRAM FILES (X86)\WINDOWS KITS\8.1\LIB\WINV6.3\UM\X86\COMDLG32.LIB
C:\PROGRAM FILES (X86)\WINDOWS KITS\8.1\LIB\WINV6.3\UM\X86\ADVAPI32.LIB
C:\PROGRAM FILES (X86)\WINDOWS KITS\8.1\LIB\WINV6.3\UM\X86\SHELL32.LIB
C:\PROGRAM FILES (X86)\WINDOWS KITS\8.1\LIB\WINV6.3\UM\X86\OLE32.LIB
C:\PROGRAM FILES (X86)\WINDOWS KITS\8.1\LIB\WINV6.3\UM\X86\OLEAUT32.LIB
C:\PROGRAM FILES (X86)\WINDOWS KITS\8.1\LIB\WINV6.3\UM\X86\UUID.LIB
C:\PROGRAM FILES (X86)\WINDOWS KITS\8.1\LIB\WINV6.3\UM\X86\ODBC32.LIB
C:\PROGRAM FILES (X86)\WINDOWS KITS\8.1\LIB\WINV6.3\UM\X86\ODBCCP32.LIB
F:\GRAFIKA KOMPUTEROWA\ZAJECIA 4 CW1\GKCOPYPASTEDFROMJANUSZGANCZARSKI\DEBUG\GKCOPYPASTEDFROMJANUSZGANCZARSKI.OBJ
F:\GRAFIKA KOMPUTEROWA\ZAJECIA 4 CW1\GKCOPYPASTEDFROMJANUSZGANCZARSKI\DEBUG\STDAFX.OBJ
F:\GRAFIKA KOMPUTEROWA\ZAJECIA 4 CW1\GKCOPYPASTEDFROMJANUSZGANCZARSKI\DEBUG\TARGA.OBJ
C:\WINDOWS\SYSTEM32\TZRES.DLL
C:\PROGRAM FILES (X86)\WINDOWS KITS\8.1\LIB\WINV6.3\UM\X86\GLU32.LIB
C:\PROGRAM FILES (X86)\WINDOWS KITS\8.1\LIB\WINV6.3\UM\X86\OPENGL32.LIB
C:\PROGRAM FILES (X86)\WINDOWS KITS\8.1\LIB\WINV6.3\UM\X86\WINMM.LIB
C:\PROGRAM FILES (X86)\MICROSOFT VISUAL STUDIO 14.0\VC\LIB\MSVCRTD.LIB
C:\PROGRAM FILES (X86)\MICROSOFT VISUAL STUDIO 14.0\VC\LIB\OLDNAMES.LIB
C:\PROGRAM FILES (X86)\MICROSOFT VISUAL STUDIO 14.0\VC\LIB\VCRUNTIMED.LIB
C:\PROGRAM FILES (X86)\WINDOWS KITS\10\LIB\10.0.10240.0\UCRT\X86\UCRTD.LIB
C:\PROGRAM FILES (X86)\MICROSOFT VISUAL STUDIO 14.0\VC\BIN\RC.EXE
C:\PROGRAM FILES (X86)\MICROSOFT VISUAL STUDIO 14.0\VC\BIN\CVTRES.EXE
