^C:\USERS\STUDENT\DOCUMENTS\GRAFIKA\AU\GKCOPYPASTEDILIKECP\GKCOPYPASTEDILIKECP\GKCOPYPASTEDILIKECP.CPP
/c /IC:\USERS\STUDENT\DOCUMENTS\GRAFIKA\AU\GKCOPYPASTEDILIKECP\PACKAGES\NUPENGL.CORE.0.1.0.1\BUILD\NATIVE\../..//BUILD/NATIVE/INCLUDE/ /ZI /nologo /W3 /WX- /sdl /Od /Oy- /D WIN32 /D _DEBUG /D _CONSOLE /D _CRT_SECURE_NO_WARNINGS /D _UNICODE /D UNICODE /Gm /EHsc /RTC1 /MDd /GS /fp:precise /Zc:wchar_t /Zc:forScope /Zc:inline /Fo"DEBUG\\" /Fd"DEBUG\VC140.PDB" /Gd /TP /analyze- C:\USERS\STUDENT\DOCUMENTS\GRAFIKA\AU\GKCOPYPASTEDILIKECP\GKCOPYPASTEDILIKECP\GKCOPYPASTEDILIKECP.CPP
^C:\USERS\STUDENT\DOCUMENTS\GRAFIKA\AU\GKCOPYPASTEDILIKECP\GKCOPYPASTEDILIKECP\STDAFX.CPP
/c /IC:\USERS\STUDENT\DOCUMENTS\GRAFIKA\AU\GKCOPYPASTEDILIKECP\PACKAGES\NUPENGL.CORE.0.1.0.1\BUILD\NATIVE\../..//BUILD/NATIVE/INCLUDE/ /ZI /nologo /W3 /WX- /sdl /Od /Oy- /D WIN32 /D _DEBUG /D _CONSOLE /D _CRT_SECURE_NO_WARNINGS /D _UNICODE /D UNICODE /Gm /EHsc /RTC1 /MDd /GS /fp:precise /Zc:wchar_t /Zc:forScope /Zc:inline /Fo"DEBUG\\" /Fd"DEBUG\VC140.PDB" /Gd /TP /analyze- C:\USERS\STUDENT\DOCUMENTS\GRAFIKA\AU\GKCOPYPASTEDILIKECP\GKCOPYPASTEDILIKECP\STDAFX.CPP
^C:\USERS\STUDENT\DOCUMENTS\GRAFIKA\AU\GKCOPYPASTEDILIKECP\GKCOPYPASTEDILIKECP\TARGA.CPP
/c /IC:\USERS\STUDENT\DOCUMENTS\GRAFIKA\AU\GKCOPYPASTEDILIKECP\PACKAGES\NUPENGL.CORE.0.1.0.1\BUILD\NATIVE\../..//BUILD/NATIVE/INCLUDE/ /ZI /nologo /W3 /WX- /sdl /Od /Oy- /D WIN32 /D _DEBUG /D _CONSOLE /D _CRT_SECURE_NO_WARNINGS /D _UNICODE /D UNICODE /Gm /EHsc /RTC1 /MDd /GS /fp:precise /Zc:wchar_t /Zc:forScope /Zc:inline /Fo"DEBUG\\" /Fd"DEBUG\VC140.PDB" /Gd /TP /analyze- C:\USERS\STUDENT\DOCUMENTS\GRAFIKA\AU\GKCOPYPASTEDILIKECP\GKCOPYPASTEDILIKECP\TARGA.CPP
^E:\GRAFIKA KOMPUTEROWA\ZAJECIA 5 CW1\GKCOPYPASTEDILIKECP\GKCOPYPASTEDILIKECP.CPP
/c /I"E:\GRAFIKA KOMPUTEROWA\ZAJECIA 5 CW1\PACKAGES\NUPENGL.CORE.0.1.0.1\BUILD\NATIVE\../..//BUILD/NATIVE/INCLUDE/" /ZI /nologo /W3 /WX- /sdl /Od /Oy- /D WIN32 /D _DEBUG /D _CONSOLE /D _CRT_SECURE_NO_WARNINGS /D _UNICODE /D UNICODE /Gm /EHsc /RTC1 /MDd /GS /fp:precise /Zc:wchar_t /Zc:forScope /Zc:inline /Fo"DEBUG\\" /Fd"DEBUG\VC140.PDB" /Gd /TP /analyze- E:\GRAFIKA KOMPUTEROWA\ZAJECIA 5 CW1\GKCOPYPASTEDILIKECP\GKCOPYPASTEDILIKECP.CPP
^E:\GRAFIKA KOMPUTEROWA\ZAJECIA 5 CW1\GKCOPYPASTEDILIKECP\STDAFX.CPP
/c /I"E:\GRAFIKA KOMPUTEROWA\ZAJECIA 5 CW1\PACKAGES\NUPENGL.CORE.0.1.0.1\BUILD\NATIVE\../..//BUILD/NATIVE/INCLUDE/" /ZI /nologo /W3 /WX- /sdl /Od /Oy- /D WIN32 /D _DEBUG /D _CONSOLE /D _CRT_SECURE_NO_WARNINGS /D _UNICODE /D UNICODE /Gm /EHsc /RTC1 /MDd /GS /fp:precise /Zc:wchar_t /Zc:forScope /Zc:inline /Fo"DEBUG\\" /Fd"DEBUG\VC140.PDB" /Gd /TP /analyze- E:\GRAFIKA KOMPUTEROWA\ZAJECIA 5 CW1\GKCOPYPASTEDILIKECP\STDAFX.CPP
^E:\GRAFIKA KOMPUTEROWA\ZAJECIA 5 CW1\GKCOPYPASTEDILIKECP\TARGA.CPP
/c /I"E:\GRAFIKA KOMPUTEROWA\ZAJECIA 5 CW1\PACKAGES\NUPENGL.CORE.0.1.0.1\BUILD\NATIVE\../..//BUILD/NATIVE/INCLUDE/" /ZI /nologo /W3 /WX- /sdl /Od /Oy- /D WIN32 /D _DEBUG /D _CONSOLE /D _CRT_SECURE_NO_WARNINGS /D _UNICODE /D UNICODE /Gm /EHsc /RTC1 /MDd /GS /fp:precise /Zc:wchar_t /Zc:forScope /Zc:inline /Fo"DEBUG\\" /Fd"DEBUG\VC140.PDB" /Gd /TP /analyze- E:\GRAFIKA KOMPUTEROWA\ZAJECIA 5 CW1\GKCOPYPASTEDILIKECP\TARGA.CPP
^E:\GRAFIKA KOMPUTEROWA\ZAJECIA 6 CW1\GKCOPYPASTEDILIKECP\GKCOPYPASTEDILIKECP.CPP
/c /I"E:\GRAFIKA KOMPUTEROWA\ZAJECIA 6 CW1\PACKAGES\NUPENGL.CORE.0.1.0.1\BUILD\NATIVE\../..//BUILD/NATIVE/INCLUDE/" /ZI /nologo /W3 /WX- /sdl /Od /Oy- /D WIN32 /D _DEBUG /D _CONSOLE /D _CRT_SECURE_NO_WARNINGS /D _UNICODE /D UNICODE /Gm /EHsc /RTC1 /MDd /GS /fp:precise /Zc:wchar_t /Zc:forScope /Zc:inline /Fo"DEBUG\\" /Fd"DEBUG\VC140.PDB" /Gd /TP /analyze- E:\GRAFIKA KOMPUTEROWA\ZAJECIA 6 CW1\GKCOPYPASTEDILIKECP\GKCOPYPASTEDILIKECP.CPP
^E:\GRAFIKA KOMPUTEROWA\ZAJECIA 6 CW1\GKCOPYPASTEDILIKECP\STDAFX.CPP
/c /I"E:\GRAFIKA KOMPUTEROWA\ZAJECIA 6 CW1\PACKAGES\NUPENGL.CORE.0.1.0.1\BUILD\NATIVE\../..//BUILD/NATIVE/INCLUDE/" /ZI /nologo /W3 /WX- /sdl /Od /Oy- /D WIN32 /D _DEBUG /D _CONSOLE /D _CRT_SECURE_NO_WARNINGS /D _UNICODE /D UNICODE /Gm /EHsc /RTC1 /MDd /GS /fp:precise /Zc:wchar_t /Zc:forScope /Zc:inline /Fo"DEBUG\\" /Fd"DEBUG\VC140.PDB" /Gd /TP /analyze- E:\GRAFIKA KOMPUTEROWA\ZAJECIA 6 CW1\GKCOPYPASTEDILIKECP\STDAFX.CPP
^E:\GRAFIKA KOMPUTEROWA\ZAJECIA 6 CW1\GKCOPYPASTEDILIKECP\TARGA.CPP
/c /I"E:\GRAFIKA KOMPUTEROWA\ZAJECIA 6 CW1\PACKAGES\NUPENGL.CORE.0.1.0.1\BUILD\NATIVE\../..//BUILD/NATIVE/INCLUDE/" /ZI /nologo /W3 /WX- /sdl /Od /Oy- /D WIN32 /D _DEBUG /D _CONSOLE /D _CRT_SECURE_NO_WARNINGS /D _UNICODE /D UNICODE /Gm /EHsc /RTC1 /MDd /GS /fp:precise /Zc:wchar_t /Zc:forScope /Zc:inline /Fo"DEBUG\\" /Fd"DEBUG\VC140.PDB" /Gd /TP /analyze- E:\GRAFIKA KOMPUTEROWA\ZAJECIA 6 CW1\GKCOPYPASTEDILIKECP\TARGA.CPP
^F:\GRAFIKA KOMPUTEROWA\ZAJECIA 6 CW1\GKCOPYPASTEDILIKECP\GKCOPYPASTEDILIKECP.CPP
/c /I"F:\GRAFIKA KOMPUTEROWA\ZAJECIA 6 CW1\PACKAGES\NUPENGL.CORE.0.1.0.1\BUILD\NATIVE\../..//BUILD/NATIVE/INCLUDE/" /ZI /nologo /W3 /WX- /sdl /Od /Oy- /D WIN32 /D _DEBUG /D _CONSOLE /D _CRT_SECURE_NO_WARNINGS /D _UNICODE /D UNICODE /Gm /EHsc /RTC1 /MDd /GS /fp:precise /Zc:wchar_t /Zc:forScope /Zc:inline /Fo"DEBUG\\" /Fd"DEBUG\VC140.PDB" /Gd /TP /analyze- F:\GRAFIKA KOMPUTEROWA\ZAJECIA 6 CW1\GKCOPYPASTEDILIKECP\GKCOPYPASTEDILIKECP.CPP
^F:\GRAFIKA KOMPUTEROWA\ZAJECIA 6 CW1\GKCOPYPASTEDILIKECP\STDAFX.CPP
/c /I"F:\GRAFIKA KOMPUTEROWA\ZAJECIA 6 CW1\PACKAGES\NUPENGL.CORE.0.1.0.1\BUILD\NATIVE\../..//BUILD/NATIVE/INCLUDE/" /ZI /nologo /W3 /WX- /sdl /Od /Oy- /D WIN32 /D _DEBUG /D _CONSOLE /D _CRT_SECURE_NO_WARNINGS /D _UNICODE /D UNICODE /Gm /EHsc /RTC1 /MDd /GS /fp:precise /Zc:wchar_t /Zc:forScope /Zc:inline /Fo"DEBUG\\" /Fd"DEBUG\VC140.PDB" /Gd /TP /analyze- F:\GRAFIKA KOMPUTEROWA\ZAJECIA 6 CW1\GKCOPYPASTEDILIKECP\STDAFX.CPP
^F:\GRAFIKA KOMPUTEROWA\ZAJECIA 6 CW1\GKCOPYPASTEDILIKECP\TARGA.CPP
/c /I"F:\GRAFIKA KOMPUTEROWA\ZAJECIA 6 CW1\PACKAGES\NUPENGL.CORE.0.1.0.1\BUILD\NATIVE\../..//BUILD/NATIVE/INCLUDE/" /ZI /nologo /W3 /WX- /sdl /Od /Oy- /D WIN32 /D _DEBUG /D _CONSOLE /D _CRT_SECURE_NO_WARNINGS /D _UNICODE /D UNICODE /Gm /EHsc /RTC1 /MDd /GS /fp:precise /Zc:wchar_t /Zc:forScope /Zc:inline /Fo"DEBUG\\" /Fd"DEBUG\VC140.PDB" /Gd /TP /analyze- F:\GRAFIKA KOMPUTEROWA\ZAJECIA 6 CW1\GKCOPYPASTEDILIKECP\TARGA.CPP
^E:\GITPROJECTS\GRAFIKA_KOMPUTEROWA\ZAJECIA 6 CW1\GKCOPYPASTEDILIKECP\GKCOPYPASTEDILIKECP.CPP
/c /I"E:\GITPROJECTS\GRAFIKA_KOMPUTEROWA\ZAJECIA 6 CW1\PACKAGES\NUPENGL.CORE.0.1.0.1\BUILD\NATIVE\../..//BUILD/NATIVE/INCLUDE/" /ZI /nologo /W3 /WX- /sdl /Od /Oy- /D WIN32 /D _DEBUG /D _CONSOLE /D _CRT_SECURE_NO_WARNINGS /D _UNICODE /D UNICODE /Gm /EHsc /RTC1 /MDd /GS /fp:precise /Zc:wchar_t /Zc:forScope /Zc:inline /Fo"DEBUG\\" /Fd"DEBUG\VC140.PDB" /Gd /TP /analyze- E:\GITPROJECTS\GRAFIKA_KOMPUTEROWA\ZAJECIA 6 CW1\GKCOPYPASTEDILIKECP\GKCOPYPASTEDILIKECP.CPP
^E:\GITPROJECTS\GRAFIKA_KOMPUTEROWA\ZAJECIA 6 CW1\GKCOPYPASTEDILIKECP\STDAFX.CPP
/c /I"E:\GITPROJECTS\GRAFIKA_KOMPUTEROWA\ZAJECIA 6 CW1\PACKAGES\NUPENGL.CORE.0.1.0.1\BUILD\NATIVE\../..//BUILD/NATIVE/INCLUDE/" /ZI /nologo /W3 /WX- /sdl /Od /Oy- /D WIN32 /D _DEBUG /D _CONSOLE /D _CRT_SECURE_NO_WARNINGS /D _UNICODE /D UNICODE /Gm /EHsc /RTC1 /MDd /GS /fp:precise /Zc:wchar_t /Zc:forScope /Zc:inline /Fo"DEBUG\\" /Fd"DEBUG\VC140.PDB" /Gd /TP /analyze- E:\GITPROJECTS\GRAFIKA_KOMPUTEROWA\ZAJECIA 6 CW1\GKCOPYPASTEDILIKECP\STDAFX.CPP
^E:\GITPROJECTS\GRAFIKA_KOMPUTEROWA\ZAJECIA 6 CW1\GKCOPYPASTEDILIKECP\TARGA.CPP
/c /I"E:\GITPROJECTS\GRAFIKA_KOMPUTEROWA\ZAJECIA 6 CW1\PACKAGES\NUPENGL.CORE.0.1.0.1\BUILD\NATIVE\../..//BUILD/NATIVE/INCLUDE/" /ZI /nologo /W3 /WX- /sdl /Od /Oy- /D WIN32 /D _DEBUG /D _CONSOLE /D _CRT_SECURE_NO_WARNINGS /D _UNICODE /D UNICODE /Gm /EHsc /RTC1 /MDd /GS /fp:precise /Zc:wchar_t /Zc:forScope /Zc:inline /Fo"DEBUG\\" /Fd"DEBUG\VC140.PDB" /Gd /TP /analyze- E:\GITPROJECTS\GRAFIKA_KOMPUTEROWA\ZAJECIA 6 CW1\GKCOPYPASTEDILIKECP\TARGA.CPP
